<svg width="294" height="255" viewBox="0 0 294 255" fill="none" xmlns="http://www.w3.org/2000/svg">
<path d="M264.833 0.0467844C286.97 -1.214 301.106 23.2697 288.945 41.8108L157.473 242.265C146.446 259.079 121.567 258.371 111.513 240.957L3.65083 54.1338C-6.40289 36.7203 5.42339 14.8208 25.4983 13.6775L264.833 0.0467844Z" fill="#BC104E"/>
</svg>
