<svg width="282" height="282" viewBox="0 0 282 282" fill="none" xmlns="http://www.w3.org/2000/svg">
<path d="M246.204 1.40517C267.26 -5.54221 287.251 14.4487 280.304 35.5054L205.193 263.157C198.893 282.252 174.679 288.007 160.461 273.789L7.92016 121.248C-6.29794 107.03 -0.542631 82.8159 18.5523 76.5157L246.204 1.40517Z" fill="#DD534A"/>
</svg>
